Accelerator Breakout Activity
…
# Let's see what the specific dates are that we had so many delays in Feb
flights %>% 
  mutate(the_date = ymd(paste(year, month, day, sep="-"))) %>% 
  filter(is.na(dep_time)) %>% 
  group_by(the_date) %>% 
  summarise(cancelled = n()) %>% 
  arrange(desc(cancelled))

## # A tibble: 358 x 2
##    the_date   cancelled
##    <date>         <int>
##  1 2013-02-08       472
##  2 2013-02-09       393
##  3 2013-05-23       221
##  4 2013-12-10       204
##  5 2013-09-12       192
##  6 2013-03-06       180
##  7 2013-03-08       180
##  8 2013-12-05       158
##  9 2013-12-14       125
## 10 2013-06-28       123
## # ... with 348 more rows
…
